endpoint[10.45,0,0.0]
wp0[0,0,0.0]
wp1[3.75,-0.25,0.0]
wp10[8.9,0.65,0.0]
wp11[10.75,-0.05,0.0]
wp12[9.6,4.4,0.0]
wp13[0,-1.45,0.0]
wp14[5.4,4.05,0.0]
wp15[7.2,4.35,0.0]
wp16[9.5,-3,0.0]
wp17[10.45,-3.35,0.0]
wp18[8.45,-0.4,0.0]
wp19[5.5,-0.35,0.0]
wp2[0.5,-3.15,0.0]
wp20[7.35,0.7,0.0]
wp21[4.7,0.3,0.0]
wp22[7.05,-4,0.0]
wp23[9.2,-4,0.0]
wp24[8.6,3.85,0.0]
wp25[9.9,-0.7,0.0]
wp26[5.9,-3.4,0.0]
wp27[9.65,-1.75,0.0]
wp28[9.8,2.25,0.0]
wp29[4.25,1.75,0.0]
wp3[1,-4.35,0.0]
wp30[8.15,-3.45,0.0]
wp31[6.7,-0.2,0.0]
wp32[2.7,-0.35,0.0]
wp33[9.6,3.25,0.0]
wp34[0.95,-2.1,0.0]
wp35[6.6,3.45,0.0]
wp36[1.5,-3.4,0.0]
wp37[6.05,-4.4,0.0]
wp38[7.65,3.45,0.0]
wp4[2.65,-3.65,0.0]
wp5[4.25,-3.75,0.0]
wp6[1.25,-0.25,0.0]
wp7[1.9,0.55,0.0]
wp8[4.9,2.9,0.0]
wp9[3.95,3.4,0.0]
