endpoint[10.45,0,0.0]
wp0[0,0,0.0]
wp1[6.75,0.15,0.0]
wp10[9.15,-4.25,0.0]
wp11[10.4,-3.65,0.0]
wp12[2.95,0,0.0]
wp13[8,0,0.0]
wp14[7.7,-3.95,0.0]
wp15[4.25,-4.25,0.0]
wp16[4.7,0.3,0.0]
wp17[7.4,4.25,0.0]
wp18[9.7,-2.3,0.0]
wp19[5.7,4.4,0.0]
wp2[9.45,-0.1,0.0]
wp20[4.55,3.6,0.0]
wp21[2.95,-3.25,0.0]
wp22[6.3,-3.45,0.0]
wp23[6.65,-4.4,0.0]
wp24[5.8,-0.4,0.0]
wp25[4.3,2.6,0.0]
wp26[6.45,3.65,0.0]
wp27[4.75,1.65,0.0]
wp28[9.75,1.9,0.0]
wp29[8.6,4.45,0.0]
wp3[10.55,0.1,0.0]
wp30[2.25,-4,0.0]
wp31[9.75,-1.25,0.0]
wp32[8.55,3.35,0.0]
wp33[8.6,-3.2,0.0]
wp34[5.75,0.7,0.0]
wp35[1.95,0.6,0.0]
wp36[3.9,-0.35,0.0]
wp37[4.3,-3.25,0.0]
wp38[3.25,-4.4,0.0]
wp4[1.3,-0.3,0.0]
wp5[1.15,-4,0.0]
wp6[0.35,-3.3,0.0]
wp7[5.3,-3.55,0.0]
wp8[9.6,3.55,0.0]
wp9[0.45,-1.6,0.0]
