-9 -9 -9
-7.34338 -9.6644 -7.76945
-7.34338 -9.6644 -7.76945
-5.2456 -9.63551 -6.64489
-5.2456 -9.63551 -6.64489
-3.72395 -9.59088 -6.04626
-3.72395 -9.59088 -6.04626
-1.46421 -9.52845 -5.15445
-1.46421 -9.52845 -5.15445
-0.224595 -7.80517 -4.12103
-0.224595 -7.80517 -4.12103
1.20802 -5.66025 -2.97241
1.20802 -5.66025 -2.97241
2.18193 -4.62887 -2.26704
2.18193 -4.62887 -2.26704
2.14075 -3.26127 -1.21662
2.14075 -3.26127 -1.21662
3.28856 -1.62939 0.0684596
3.28856 -1.62939 0.0684596
4.13472 0.371841 2.71297
4.13472 0.371841 2.71297
4.21943 1.69221 3.53174
4.21943 1.69221 3.53174
5.42115 3.49363 5.02736
5.42115 3.49363 5.02736
6.30827 4.93304 6.09415
6.30827 4.93304 6.09415
7.45963 6.8086 7.49056
7.45963 6.8086 7.49056
8.41329 8.17542 8.77995
8.41329 8.17542 8.77995
