endpoint[10.45,0,0.0]
wp0[0,0,0.0]
wp1[1.35,-0.3,0.0]
wp10[9.65,1.55,0.0]
wp11[10.25,0.3,0.0]
wp12[7,-4.05,0.0]
wp13[8.55,-4,0.0]
wp14[0.75,-2.35,0.0]
wp15[0.75,-4.3,0.0]
wp16[2.2,-4.2,0.0]
wp17[4.5,0.75,0.0]
wp18[8.7,-0.25,0.0]
wp19[4,1.65,0.0]
wp2[7.2,0,0.0]
wp20[4.45,3.35,0.0]
wp21[6.7,4.45,0.0]
wp22[9.85,-1.95,0.0]
wp23[2.7,-3.3,0.0]
wp24[3.7,-0.55,0.0]
wp25[2.6,-0.45,0.0]
wp26[7.05,3.5,0.0]
wp27[8.3,4.3,0.0]
wp28[9.2,3.3,0.0]
wp29[5.5,3.75,0.0]
wp3[5.3,-0.15,0.0]
wp30[9.8,-4.2,0.0]
wp31[5.9,-3.3,0.0]
wp32[1.45,-3.45,0.0]
wp33[8.1,0.65,0.0]
wp34[6.05,0.6,0.0]
wp35[9.75,-0.65,0.0]
wp36[4.8,2.35,0.0]
wp37[9.55,4.5,0.0]
wp38[0.85,0.6,0.0]
wp4[0.55,-1.05,0.0]
wp5[0.35,-3.3,0.0]
wp6[3.25,-4.4,0.0]
wp7[4.5,-3.55,0.0]
wp8[9.35,-3.3,0.0]
wp9[10.8,-3.5,0.0]
